%YAML 1.1
%TAG !u! tag:unity3d.com,2011:
--- !u!114 &11400000
MonoBehaviour:
  m_ObjectHideFlags: 0
  m_CorrespondingSourceObject: {fileID: 0}
  m_PrefabInstance: {fileID: 0}
  m_PrefabAsset: {fileID: 0}
  m_GameObject: {fileID: 0}
  m_Enabled: 1
  m_EditorHideFlags: 0
  m_Script: {fileID: 11500000, guid: ed75dcecd22c0574ba4d5f659a065a02, type: 3}
  m_Name: RH_TestWGesture
  m_EditorClassIdentifier: 
  Name: RH_TestWGesture
  fingersData:
  - {x: 0, y: 0, z: 0}
  - {x: 0, y: 0, z: 0}
  - {x: -0.0200693, y: -0.0115541, z: -0.01049653}
  - {x: -0.0312233, y: -0.009637432, z: -0.03262264}
  - {x: -0.04880622, y: -0.01546196, z: -0.05934349}
  - {x: -0.0736161, y: -0.02255144, z: -0.08116511}
  - {x: -0.09599623, y: -0.007316441, z: -0.02355068}
  - {x: -0.1326794, y: -0.002565322, z: -0.03193244}
  - {x: -0.1563876, y: -0.0008792884, z: -0.03700633}
  - {x: -0.09564663, y: -0.002543178, z: -0.001725915}
  - {x: -0.1368534, y: -0.0145654, z: -0.00128923}
  - {x: -0.1623746, y: -0.02493299, z: -0.0008890613}
  - {x: -0.08869381, y: -0.006529325, z: 0.01746524}
  - {x: -0.1229994, y: -0.02451302, z: 0.02198294}
  - {x: -0.1353305, y: -0.04802813, z: 0.02092026}
  - {x: -0.03407357, y: -0.009419854, z: 0.02299857}
  - {x: -0.07789584, y: -0.01369118, z: 0.03505407}
  - {x: -0.1045951, y: -0.02035935, z: 0.04870803}
  - {x: -0.1201074, y: -0.03101009, z: 0.05635537}
  - {x: -0.08579919, y: -0.02589952, z: -0.1022974}
  - {x: -0.1778621, y: 0.004738448, z: -0.0399294}
  - {x: -0.1861185, y: -0.03267901, z: 0.00003990468}
  - {x: -0.1402365, y: -0.07155865, z: 0.01683854}
  - {x: -0.1363893, y: -0.04519165, z: 0.0603446}
  OnRecognized:
    m_PersistentCalls:
      m_Calls: []
